import java.time.*;

public class PlusDateTime {
 
    public static void checkingPeriod()
    {
        LocalDate date1 = LocalDate.now();//Current date 
 
        LocalDate date2 =
            LocalDate.of(2014, Month.DECEMBER, 12);//the date 12 decemebr 2014
 
        Period gap = Period.between(date2, date1);
        //retreving the gap betwen 12decemebr 2014 and current date
        System.out.println("gap between dates "+
                           "is a period of "+gap);
}
 
    // Function to check duration
    public static void checkingDuration()
    { 
 
        LocalTime time1 = LocalTime.now();
        System.out.println("the current time is " +
                            time1);
 
        Duration minutesadd = Duration.ofMinutes(120);//we are finding minutes of 120
 
        // adding five hours to the current
        // time and storing it in time2
        LocalTime time2 = time1.plus(minutesadd);
 
        System.out.println("after adding five hours " +
                           "of duration " + time2);
 
        Duration gap = Duration.between(time2, time1);
        System.out.println("duration gap between time1" +
                           " & time2 is " + gap);
}
 
    // Driver code
    public static void main(String[] args)
    {
        checkingPeriod();
        checkingDuration();
    }
}